<?xml version="1.0" encoding="UTF-8"?>
<!-- Created with Inkscape (http://www.inkscape.org/) -->
<svg width="537.15" height="309.64" version="1.1" viewBox="0 0 537.14825 309.63571" xmlns="http://www.w3.org/2000/svg" xmlns:cc="http://creativecommons.org/ns#" xmlns:dc="http://purl.org/dc/elements/1.1/" xmlns:rdf="http://www.w3.org/1999/02/22-rdf-syntax-ns#">
 <metadata>
  <rdf:RDF>
   <cc:Work rdf:about="">
    <dc:format>image/svg+xml</dc:format>
    <dc:type rdf:resource="http://purl.org/dc/dcmitype/StillImage"/>
    <dc:title/>
   </cc:Work>
  </rdf:RDF>
 </metadata>
 <g transform="translate(358.06 328.79)">
  <path d="m-254.17-20.115c-38.721-4.2597-73.24-26.548-90.005-58.115-15.129-28.487-18.148-65.622-7.841-96.453 6.5222-19.509 18.597-38.544 34.825-54.897 20.05-20.205 42.422-32.129 72.022-38.385 13.005-2.7487 36.742-3.7232 50.124-2.0577 30.726 3.824 63.744 16.823 95.661 37.661 5.3815 3.5136 9.951 6.3883 10.155 6.3883 0.2035 0 1.8294-2.5875 3.6131-5.75 12.903-22.877 33.409-48.134 50.915-62.713 27.091-22.56 54.327-33.077 88.682-34.243 29.482-1.0009 51.502 4.9015 74.702 20.024 25.56 16.661 41.307 40.364 47.622 71.682 5.7964 28.749 2.5425 55.081-9.9689 80.672-26.683 54.576-85.544 84.946-149 76.878-28.885-3.6719-61.954-14.537-96.192-31.605l-11.764-5.8647-6.256 10.703c-9.379 16.046-19.71 29.409-32.659 42.244-26.436 26.202-57.157 40.318-95.629 43.937-12.441 1.1704-17.574 1.1517-29-0.10518zm38-50.281c15.9-4.421 29.001-14.141 40.442-30.006 7.5851-10.518 27.058-42.913 27.058-45.014 0-0.94987-18.209-12.517-30.607-19.442-53.126-29.677-90.204-28.557-105.9 3.198-5.3214 10.767-7.2268 22.759-5.7358 36.101 3.3557 30.029 16.883 50.384 37.241 56.038 7.2242 2.0063 28.962 1.4991 37.5-0.87496zm285.5-85.646c28.55-7.9116 41.1-28.227 37.123-60.093-3.7034-29.675-17.264-47.425-41.908-54.857-6.1827-1.8645-8.9741-2.1286-18.5-1.75-25.775 1.0242-43.407 11.768-60.34 36.768-7.1168 10.507-17.353 27.998-23.265 39.752l-3.1447 6.2524 5.2656 3.3573c22.741 14.499 50.743 26.995 69.537 31.03 10.375 2.2276 26.283 2.0197 35.233-0.46044z" fill="#ceeffc"/>
 </g>
</svg>
